<?xml version="1.0" standalone="no"?>
<!DOCTYPE svg PUBLIC "-//W3C//DTD SVG 1.1//EN" "http://www.w3.org/Graphics/SVG/1.1/DTD/svg11.dtd" >
<svg xmlns="http://www.w3.org/2000/svg">
<metadata>
Created by FontForge 20120731 at Wed Nov  4 17:26:00 2015
 By Ads
</metadata>
<defs>
<font id="iconfont" horiz-adv-x="1024" >
  <font-face 
    font-family="iconfont"
    font-weight="500"
    font-stretch="normal"
    units-per-em="1024"
    panose-1="2 0 6 3 0 0 0 0 0 0"
    ascent="812"
    descent="-212"
    x-height="792"
    bbox="15 -207 1015 807"
    underline-thickness="50"
    underline-position="-100"
    unicode-range="U+0078-F012A"
  />
<missing-glyph horiz-adv-x="374" 
d="M34 0v682h272v-682h-272zM68 34h204v614h-204v-614z" />
    <glyph glyph-name=".notdef" horiz-adv-x="374" 
d="M34 0v682h272v-682h-272zM68 34h204v614h-204v-614z" />
    <glyph glyph-name=".null" horiz-adv-x="0" 
 />
    <glyph glyph-name="nonmarkingreturn" horiz-adv-x="341" 
 />
    <glyph glyph-name="x" unicode="x" horiz-adv-x="1001" 
d="M281 543q-27 -1 -53 -1h-83q-18 0 -36.5 -6t-32.5 -18.5t-23 -32t-9 -45.5v-76h912v41q0 16 -0.5 30t-0.5 18q0 13 -5 29t-17 29.5t-31.5 22.5t-49.5 9h-133v-97h-438v97zM955 310v-52q0 -23 0.5 -52t0.5 -58t-10.5 -47.5t-26 -30t-33 -16t-31.5 -4.5q-14 -1 -29.5 -0.5
t-29.5 0.5h-32l-45 128h-439l-44 -128h-29h-34q-20 0 -45 1q-25 0 -41 9.5t-25.5 23t-13.5 29.5t-4 30v167h911zM163 247q-12 0 -21 -8.5t-9 -21.5t9 -21.5t21 -8.5q13 0 22 8.5t9 21.5t-9 21.5t-22 8.5zM316 123q-8 -26 -14 -48q-5 -19 -10.5 -37t-7.5 -25t-3 -15t1 -14.5
t9.5 -10.5t21.5 -4h37h67h81h80h64h36q23 0 34 12t2 38q-5 13 -9.5 30.5t-9.5 34.5q-5 19 -11 39h-368zM336 498v228q0 11 2.5 23t10 21.5t20.5 15.5t34 6h188q31 0 51.5 -14.5t20.5 -52.5v-227h-327z" />
    <glyph glyph-name="uniE608" unicode="&#xe608;" 
d="M799 287q0 60 -30.5 111.5t-80.5 81.5q-9 4 -15 4q-11 0 -19 -7.5t-8 -18.5q0 -16 13 -24q39 -22 62.5 -61.5t23.5 -85.5q0 -48 -24 -87.5t-64 -61.5q-3 -2 -5.5 -4.5t-4 -5.5t-2.5 -6.5t-1 -6.5q0 -8 3.5 -14t9.5 -9.5t14 -3.5l13 4q52 29 83.5 81t31.5 114zM768 615
q-9 6 -16 6q-11 0 -18.5 -8t-7.5 -19q0 -16 15 -24q49 -28 85.5 -71t57 -98t20.5 -114q0 -90 -44.5 -165t-118.5 -119q-16 -8 -16 -24q0 -5 2 -10t5.5 -8.5t8.5 -6t11 -2.5t15 6q87 50 138.5 137.5t51.5 191.5q0 34 -6.5 68t-18 64.5t-28 59t-37.5 53.5t-46 46t-53 37z
M134 471h131q11 0 24 5t48.5 26.5t90.5 62.5q28 20 59 44q1 -346 1 -347q0 -8 3.5 -14t9.5 -9.5t14 -3.5q11 0 18.5 8t7.5 19v41v99q0 58 -0.5 116t-0.5 98v40q0 21 -18.5 29.5t-33.5 -3.5q-38 -31 -101 -77q-41 -30 -70.5 -49.5t-38.5 -23.5l-13 -7h-114h-1h-1h-58
q-11 0 -19 -7.5t-8 -18.5v-425q0 -11 8 -18.5t19 -7.5h195q25 -9 111 -79q42 -35 89 -76q9 -9 22 -9q7 0 13 3q19 9 19 30v149v1v1q-1 10 -8.5 17t-18.5 7t-18.5 -7.5t-7.5 -18.5v-98q-24 21 -46 39q-51 41 -84 63t-45.5 26.5t-23.5 4.5h-1h-1h-146q-14 0 -18.5 5t-4.5 19
v326q0 7 1 11t4.5 6.5t11.5 2.5z" />
    <glyph glyph-name="uniE622" unicode="&#xe622;" 
d="M936 -71h1l-248 249q75 92 79 207q1 28 -2 55.5t-11 54t-19 51.5t-26.5 48.5t-34.5 42.5q-40 44 -94 72t-113 36q-23 3 -46 3q-38 0 -75 -8.5t-71.5 -24.5t-63.5 -40q-52 -39 -86 -95.5t-44 -120.5q-4 -23 -5 -47.5t1.5 -48.5t8.5 -47.5t15 -46t21 -42.5q42 -74 112 -119
q65 -43 142 -52q22 -4 45 -4q54 0 105 16.5t94 46.5l247 -249l5 -4q13 -10 29 -10q19 0 32.5 13.5t13.5 32.5q0 17 -12 31zM685 268q-30 -62 -87.5 -105t-125.5 -54q-65 -11 -129 7q-61 17 -110.5 59t-75.5 100q-31 64 -27.5 139t40.5 136q32 56 86.5 93.5t118.5 47.5l6 1
q5 1 9 1q5 1 10.5 1.5t10.5 0.5h11q32 0 63.5 -7t60.5 -20q51 -24 90.5 -66.5t59.5 -95.5q23 -57 20 -120t-31 -118z" />
    <glyph glyph-name="uniE62C" unicode="&#xe62c;" 
d="M592 -207l-537 506l536 508l34 -35l-500 -473l499 -471z" />
    <glyph glyph-name="uniE65E" unicode="&#xe65e;" 
d="M934 797l-609 -1q-27 -5 -43.5 -26.5t-16.5 -49.5v-115v-540q-39 40 -92 40q-65 0 -111.5 -45.5t-46.5 -110.5q0 -64 46 -108.5t112 -44.5q62 0 104.5 41t47.5 108h3v506h626v-316q-18 20 -38.5 26.5t-50.5 6.5q-65 0 -113 -45.5t-48 -109.5q0 -42 22.5 -78t59.5 -56.5
t79 -20.5q62 0 106 45t44 109v478v171v62q0 34 -25.5 53.5t-55.5 20.5zM954 512l-625 1v153q0 1 0.5 2.5t1.5 2.5t3 1l612 2h1l5 -2q1 -1 1.5 -2t0.5 -3v-59v-96z" />
    <glyph glyph-name="uniE662" unicode="&#xe662;" 
d="M858 317l-460 467q-5 6 -13 6t-13.5 -5.5t-5.5 -13t6 -12.5l447 -455l-453 -453q-6 -5 -6 -12.5t6 -13.5q1 -1 2.5 -2t3.5 -1.5t3.5 -1t3.5 -0.5q8 0 13 5l466 466q3 4 4.5 8.5t0 9t-4.5 8.5z" />
    <glyph glyph-name="uniE68E" unicode="&#xe68e;" 
d="M891 481q-4 3 -7 5.5t-6 3.5q-2 2 -5 4l-4 2l-2 3l-4 1q-6 3 -12 4t-12.5 1.5t-12 0t-11.5 -1.5v5l-183 -55l-99 114q-33 43 -59 65.5t-47 27.5l-8 2q-4 1 -6.5 1.5t-5.5 0.5l-19 3h-5l-311 13l-7 -6q-7 -7 -7.5 -17t7.5 -19l1 -1l303 -220l55 -150l-157 -214l-197 -20
l173 -119l9 -14l6 4l6 -4l9 14l472 306l25 18l22 12l37 117l162 32zM798 404l-39 -124l-10 -7l-17 -9l1 -2l-11 -7l-463 -301l-74 50l99 10l3 -2l2 3h4l-1 5l167 228l14 5l-3 8l5 8l-11 9l-61 165l-266 194l245 -10h2l19 -3h2q5 0 7 -1l3 -2h3q25 -4 82 -78l107 -123l5 -15
l6 2l5 -5l12 10l161 49q4 0 12 1q26 4 36 2q2 -1 3 -2t3 -2l3 -3l6 -5h3l1 -1v-1l34 -27z" />
    <glyph glyph-name="uF012A" unicode="&#xf012a;" 
d="M833 749q26 0 49.5 -10.5t41 -28t28 -40.5t10.5 -49v-642q0 -26 -10.5 -49t-28 -40.5t-41 -28t-49.5 -10.5h-192v384h64q26 0 45 19t19 46t-19 46t-45 19h-64q2 38 16.5 51.5t38.5 13.5h67q28 0 42 20t14 44t-13.5 44t-42.5 20h-111q-35 0 -61 -12t-44 -32t-26.5 -47
t-8.5 -57v-45h-63q-27 0 -46 -19t-19 -46t19 -46t46 -19h63v-384h-321q-26 0 -49 10.5t-40.5 28t-28 40.5t-10.5 49v642q0 26 10.5 49t28 40.5t40.5 28t49 10.5h642z" />
  </font>
</defs></svg>
